newmtl blinn35SG
illum 4
Kd 0.00 0.00 0.00
Ka 0.00 0.00 0.00
Tf 1.00 1.00 1.00
map_Kd TexturesCom_Eyeball_512_albedo.png
Ni 1.00
Ks 0.50 0.50 0.50
newmtl blinn45SG
illum 4
Kd 0.00 0.00 0.00
Ka 0.00 0.00 0.00
Tf 1.00 1.00 1.00
map_Kd Old_Wood_001_COLOR.jpg
Ni 1.00
Ks 0.50 0.50 0.50
