newmtl Key_01SG
illum 4
Kd 0.00 0.00 0.00
Ka 0.20 0.20 0.20
Tf 1.00 1.00 1.00
map_Kd Metal_Pitted_001_basecolor.jpg
Ni 1.00
Ks 0.20 0.20 0.20
Ns 18.00
newmtl blinn63SG
illum 4
Kd 0.00 0.00 0.00
Ka 0.00 0.00 0.00
Tf 1.00 1.00 1.00
map_Kd white.png
Ni 1.00
Ks 0.50 0.50 0.50
